{
  "EventLimit": 20000,
  "DataSource": {
    "FilePath": "./ntp/DS-WAV/LF_TILE15_77K_71V_8VoV_1.wav",
    "Device": "LNGS-WAV",
    "Channels": 2,
    "Variables": {}
  },
  "ChannelConfigs": [
    {
      "FilterStrategy": "Exp",
      "PulseFindingStrategy": "PFSProminence",
      "PulseAnalysisStrategy": "AdditiveChi2RefitExp2Gaus1",
      "BaselineStrategy": "MostProbable",
      "WritingStrategy": "TTreeWriter",
      "EventProcessor": "Efficiency",
      "Variables": {
        "__Comment0__": "Pulse Shape",
        "Noise": 8,
        "WindowStart": 17500,
        "WindowEnd": 20000,
        "SmoothingFactor": 0.01,
        "__CommentNoise__": " Noise before filtering was around: 20",
        "RiseTimeSigma": 3.2,
        "FallTimeTau": 853,
        "FallTime2Tau": 28,
        "Polarity": -1,
        "Time2Frac": 0.55,
        "KernelSize": 101,
        "RiseTimeSigmaCoefficient": 3,
        "OLDRiseTimeSigmaCoefficient": 20,
        "FallTimeTauCoefficient": 5,
        "FallTime2TauCoefficient": 1,
        "__Comment1__": "Baseline Extraction",
        "WaveformAmplitudeBinning": 1,
        "MaxAmplitude": 16384,
        "MinAmplitude": 0,
        "RMSCutNoiseCoefficient": 25,
        "__Comment2__": "Pulse Finding",
        "WaveformStart": 151,
        "WaveformEnd": 151,
        "isFloating": 1,
        "NumBins": 0,
        "Prominence": 2.35,
        "PulseBaselineCalcBeginOffset": 25,
        "PulseBaselineCalcEndOffset": 15,
        "PulseBaselineDifferenceCutCoefficient": 10,
        "PulseChargeCutCoefficient": 3,
        "PulseChargeCalcOffset": 2,
        "PulseStartCalcOffset": 2,
        "PulseStartNoiseThresholdCoefficient": 1,
        "PulseEndNoiseThresholdCoefficient": 2,
        "__Comment3__": "Pulse Fitting",
        "FitOption": "QR0",
        "TemplateCheck": 0,
        "doFit": 0,
        "refit": 0,
        "NumPulsesFit": 15,
        "MinTimeDifference": 0.5e-9,
        "MinChiSquareForRefit": 2,
        "RiseTimeSigmaUpperLimitCoefficient": 5,
        "PulseFitLowerBoundOffsetCoefficient": 7,         
        "PulseFitLowerBoundOffset": 5
      }
    },
    {
      "PulseFindingStrategy": "PFSProminence",
      "PulseAnalysisStrategy": "AdditiveChi2RefitExp2Gaus1",
      "BaselineStrategy": "MostProbable",
      "WritingStrategy": "TTreeWriter",
      "Variables": {
        "isTrigger": 1,
        "__Comment0__": "Pulse Shape",
        "Noise": 21,
        "RiseTimeSigma": 1.12,
        "FallTimeTau": 700,
        "FallTime2Tau": 11.45,
        "Polarity": -1,
        "Time2Frac": 0.622,
        "KernelSize": 3,
        "RiseTimeSigmaCoefficient": 3,
        "FallTimeTauCoefficient": 3,
        "FallTime2TauCoefficient": 1,
        "__Comment1__": "Baseline Extraction",
        "WaveformAmplitudeBinning": 1,
        "MaxAmplitude": 16384,
        "MinAmplitude": 0,
        "RMSCutNoiseCoefficient": 25,
        "__Comment2__": "Pulse Finding",
        "NumBins": 0,
        "Prominence": 3.0,
        "PulseBaselineCalcBeginOffset": 15,
        "PulseBaselineCalcEndOffset": 5,
        "PulseBaselineDifferenceCutCoefficient": 4,
        "PulseChargeCutCoefficient": 3,
        "PulseChargeCalcOffset": 2,
        "PulseStartCalcOffset": 2,
        "PulseStartNoiseThresholdCoefficient": 1,
        "PulseEndNoiseThresholdCoefficient": 2,
        "__Comment3__": "Pulse Fitting",
        "FitOption": "QR0",
        "TemplateCheck": 0,
        "doFit": 0,
        "refit": 0,
        "NumPulsesFit": 15,
        "MinTimeDifference": 0.5e-9,
        "MinChiSquareForRefit": 2,
        "RiseTimeSigmaUpperLimitCoefficient": 5,
        "PulseFitLowerBoundOffsetCoefficient": 7,         
        "PulseFitLowerBoundOffset": 5
      }
    }
  ]
}
