@startuml TTree
object DataOutTree {
  "TTree saved to file"
}
object ch0 {
  "First Channel"
}
object chN {
  "nth Channel"
}

object eventID {
  "ID for each Event.\nUsed to filter data."
}
object triggerTime {
  "Trigger Time for \neach Event"
}

object ch0.npulse {
  "How many times \neach number of \npulses appeared"
}
map "ch0.pulse.fit" as ch0fit {
  lowLimit => ch0.pulse.fit.lowLimit
  highLimit => ch0.pulse.fit.highLimit
  baseline => ch0.pulse.fit.baseline
  time => ch0.pulse.fit.time
  amp => ch0.pulse.fit.amp
  riseTime => ch0.pulse.fit.riseTime
  fallTime => ch0.pulse.fit.fallTime
  time2Frac => ch0.pulse.fit.time2Frac
  fallTime2 => ch0.pulse.fit.fallTime2
  chi2 => ch0.pulse.fit.chi2
  NDF => ch0.pulse.fit.NDF
  charge => ch0.pulse.fit.charge
}
map "ch0.pulse" as ch0pulse {
  time => ch0.pulse.time
  absAmp => ch0.pulse.absAmp
  amp => ch0.pulse.amp
  baseline => ch0.pulse.baseline
  charge => ch0.pulse.charge
  width => ch0.pulse.width
  chi2 => ch0.pulse.singlePulseTemplateChi2
  fit *--> ch0fit
}

object chN.npulse {
  "How many times \neach number of \npulses appeared"
}
map "chN.pulse.fit" as chNfit {
  lowLimit => chN.pulse.fit.lowLimit
  highLimit => chN.pulse.fit.highLimit
  baseline => chN.pulse.fit.baseline
  time => chN.pulse.fit.time
  amp => chN.pulse.fit.amp
  riseTime => chN.pulse.fit.riseTime
  fallTime => chN.pulse.fit.fallTime
  time2Frac => chN.pulse.fit.time2Frac
  fallTime2 => chN.pulse.fit.fallTime2
  chi2 => chN.pulse.fit.chi2
  NDF => chN.pulse.fit.NDF
  charge => chN.pulse.fit.charge
}
map "chN.pulse" as chNpulse {
  time => chN.pulse.time
  absAmp => chN.pulse.absAmp
  amp => chN.pulse.amp
  baseline => chN.pulse.baseline
  charge => chN.pulse.charge
  width => chN.pulse.width
  chi2 => chN.pulse.singlePulseTemplateChi2
  fit *--> chNfit
}

DataOutTree  --> eventID : leaf
DataOutTree  --> triggerTime : leaf
DataOutTree  --> ch0 : branch
DataOutTree  --> chN : branch
ch0 --> ch0pulse : branch
ch0 --> ch0.npulse : leaf
chN --> chNpulse : branch
chN --> chN.npulse : leaf
@enduml